com\mycompany\mycomponent\TestDialog$1$1.class
com\mycompany\mycomponent\TestDialog$1.class
com\mycompany\mycomponent\ProductPanel.class
com\mycompany\mycomponent\TestDialog.class
com\mycompany\mycomponent\ProductPanel$1.class
